simulation/qsim/Neander.msim.vcd
$comment
	File created using the following command:
		vcd file Neander.msim.vcd -direction
$end
$date
	Sun Jul 06 19:37:35 2025
$end
$version
	ModelSim Version 10.1d
$end
$timescale
	1ps
$end
$scope module Neander_vlg_vec_tst $end
$var reg 1 ! clk_in $end
$var reg 1 " rst $end
$var reg 1 # run_debug $end
$var reg 1 $ run_sel $end
$var wire 1 % AC_val [7] $end
$var wire 1 & AC_val [6] $end
$var wire 1 ' AC_val [5] $end
$var wire 1 ( AC_val [4] $end
$var wire 1 ) AC_val [3] $end
$var wire 1 * AC_val [2] $end
$var wire 1 + AC_val [1] $end
$var wire 1 , AC_val [0] $end
$var wire 1 - ADD $end
$var wire 1 . AND $end
$var wire 1 / cargaAC $end
$var wire 1 0 cargaNZ $end
$var wire 1 1 cargaPC $end
$var wire 1 2 cargaRDM $end
$var wire 1 3 cargaREM $end
$var wire 1 4 cargaRI $end
$var wire 1 5 goto_t0 $end
$var wire 1 6 incrementaPC $end
$var wire 1 7 instrucoes [15] $end
$var wire 1 8 instrucoes [14] $end
$var wire 1 9 instrucoes [13] $end
$var wire 1 : instrucoes [12] $end
$var wire 1 ; instrucoes [11] $end
$var wire 1 < instrucoes [10] $end
$var wire 1 = instrucoes [9] $end
$var wire 1 > instrucoes [8] $end
$var wire 1 ? instrucoes [7] $end
$var wire 1 @ instrucoes [6] $end
$var wire 1 A instrucoes [5] $end
$var wire 1 B instrucoes [4] $end
$var wire 1 C instrucoes [3] $end
$var wire 1 D instrucoes [2] $end
$var wire 1 E instrucoes [1] $end
$var wire 1 F instrucoes [0] $end
$var wire 1 G NOT $end
$var wire 1 H opcode [7] $end
$var wire 1 I opcode [6] $end
$var wire 1 J opcode [5] $end
$var wire 1 K opcode [4] $end
$var wire 1 L opcode [3] $end
$var wire 1 M opcode [2] $end
$var wire 1 N opcode [1] $end
$var wire 1 O opcode [0] $end
$var wire 1 P OR $end
$var wire 1 Q Read $end
$var wire 1 R sel $end
$var wire 1 S tempo [2] $end
$var wire 1 T tempo [1] $end
$var wire 1 U tempo [0] $end
$var wire 1 V Write $end
$var wire 1 W Y $end
$var wire 1 X sampler $end
$scope module i1 $end
$var wire 1 Y gnd $end
$var wire 1 Z vcc $end
$var wire 1 [ unknown $end
$var tri1 1 \ devclrn $end
$var tri1 1 ] devpor $end
$var tri1 1 ^ devoe $end
$var wire 1 _ inst3|inst39~q $end
$var wire 1 ` inst3|inst39~0_combout $end
$var wire 1 a NZ|inst18~q $end
$var wire 1 b inst|inst41~0_combout $end
$var wire 1 c inst4|inst5|inst5|inst3~0_combout $end
$var wire 1 d inst4|inst17~0_combout $end
$var wire 1 e AC|inst13|inst3~1_combout $end
$var wire 1 f AC|inst9|inst3~3_combout $end
$var wire 1 g inst3|inst31|inst31~combout $end
$var wire 1 h inst3|inst31|inst24~combout $end
$var wire 1 i run_debug~input_o $end
$var wire 1 j run_sel~input_o $end
$var wire 1 k goto_t0~output_o $end
$var wire 1 l Y~output_o $end
$var wire 1 m ADD~output_o $end
$var wire 1 n AND~output_o $end
$var wire 1 o OR~output_o $end
$var wire 1 p NOT~output_o $end
$var wire 1 q AC_val[7]~output_o $end
$var wire 1 r AC_val[6]~output_o $end
$var wire 1 s AC_val[5]~output_o $end
$var wire 1 t AC_val[4]~output_o $end
$var wire 1 u AC_val[3]~output_o $end
$var wire 1 v AC_val[2]~output_o $end
$var wire 1 w AC_val[1]~output_o $end
$var wire 1 x AC_val[0]~output_o $end
$var wire 1 y cargaAC~output_o $end
$var wire 1 z Read~output_o $end
$var wire 1 { cargaREM~output_o $end
$var wire 1 | sel~output_o $end
$var wire 1 } incrementaPC~output_o $end
$var wire 1 ~ cargaPC~output_o $end
$var wire 1 !! cargaNZ~output_o $end
$var wire 1 "! instrucoes[15]~output_o $end
$var wire 1 #! instrucoes[14]~output_o $end
$var wire 1 $! instrucoes[13]~output_o $end
$var wire 1 %! instrucoes[12]~output_o $end
$var wire 1 &! instrucoes[11]~output_o $end
$var wire 1 '! instrucoes[10]~output_o $end
$var wire 1 (! instrucoes[9]~output_o $end
$var wire 1 )! instrucoes[8]~output_o $end
$var wire 1 *! instrucoes[7]~output_o $end
$var wire 1 +! instrucoes[6]~output_o $end
$var wire 1 ,! instrucoes[5]~output_o $end
$var wire 1 -! instrucoes[4]~output_o $end
$var wire 1 .! instrucoes[3]~output_o $end
$var wire 1 /! instrucoes[2]~output_o $end
$var wire 1 0! instrucoes[1]~output_o $end
$var wire 1 1! instrucoes[0]~output_o $end
$var wire 1 2! opcode[7]~output_o $end
$var wire 1 3! opcode[6]~output_o $end
$var wire 1 4! opcode[5]~output_o $end
$var wire 1 5! opcode[4]~output_o $end
$var wire 1 6! opcode[3]~output_o $end
$var wire 1 7! opcode[2]~output_o $end
$var wire 1 8! opcode[1]~output_o $end
$var wire 1 9! opcode[0]~output_o $end
$var wire 1 :! cargaRI~output_o $end
$var wire 1 ;! cargaRDM~output_o $end
$var wire 1 <! Write~output_o $end
$var wire 1 =! tempo[2]~output_o $end
$var wire 1 >! tempo[1]~output_o $end
$var wire 1 ?! tempo[0]~output_o $end
$var wire 1 @! RDM|inst12~0feeder_combout $end
$var wire 1 A! rst~input_o $end
$var wire 1 B! rst~inputclkctrl_outclk $end
$var wire 1 C! RDM|inst12~0_q $end
$var wire 1 D! RDM|inst14~1_q $end
$var wire 1 E! clk_in~input_o $end
$var wire 1 F! clk_in~inputclkctrl_outclk $end
$var wire 1 G! inst1|inst|inst2~0_combout $end
$var wire 1 H! RDM|inst8~1_q $end
$var wire 1 I! RDM|inst4~1_q $end
$var wire 1 J! inst3|inst34~0_combout $end
$var wire 1 K! RDM|inst~1_q $end
$var wire 1 L! inst3|inst35~0_combout $end
$var wire 1 M! inst3|inst31|inst22~combout $end
$var wire 1 N! inst1|inst|inst4|inst|inst~combout $end
$var wire 1 O! inst1|inst|inst6~q $end
$var wire 1 P! inst1|inst|inst7|inst|inst~combout $end
$var wire 1 Q! inst1|inst|inst14~q $end
$var wire 1 R! inst|inst44~2_combout $end
$var wire 1 S! RDM|inst12~1_q $end
$var wire 1 T! inst3|inst38~0_combout $end
$var wire 1 U! inst3|inst31|inst21~combout $end
$var wire 1 V! inst3|inst38~q $end
$var wire 1 W! inst|inst44~3_combout $end
$var wire 1 X! REM|inst13|inst3~0_combout $end
$var wire 1 Y! inst|inst43~0_combout $end
$var wire 1 Z! DECOD|inst5~4_combout $end
$var wire 1 [! inst|inst38~1_combout $end
$var wire 1 \! inst1|inst1|inst4~0_combout $end
$var wire 1 ]! inst|inst43~combout $end
$var wire 1 ^! REM|inst12~q $end
$var wire 1 _! REM|inst15|inst3~0_combout $end
$var wire 1 `! REM|inst14~q $end
$var wire 1 a! inst2|Mux0_rtl_0|auto_generated|ram_block1a1 $end
$var wire 1 b! RDM|inst12~4_combout $end
$var wire 1 c! inst1|inst1|inst4~2_combout $end
$var wire 1 d! RI|inst12~q $end
$var wire 1 e! DECOD|inst5~3_combout $end
$var wire 1 f! DECOD|inst5~2_combout $end
$var wire 1 g! inst|inst28~0_combout $end
$var wire 1 h! inst|inst34~0_combout $end
$var wire 1 i! inst|inst34~1_combout $end
$var wire 1 j! inst3|inst35~q $end
$var wire 1 k! REM|inst11|inst3~0_combout $end
$var wire 1 l! REM|inst10~q $end
$var wire 1 m! inst2|Mux0_rtl_0|auto_generated|ram_block1a5 $end
$var wire 1 n! RDM|inst~4_combout $end
$var wire 1 o! inst3|inst31|inst17~combout $end
$var wire 1 p! inst3|inst32~q $end
$var wire 1 q! inst3|inst32~0_combout $end
$var wire 1 r! inst3|inst1|inst3~0_combout $end
$var wire 1 s! inst3|inst31|inst28~combout $end
$var wire 1 t! inst3|inst31|inst23~combout $end
$var wire 1 u! inst3|inst34~q $end
$var wire 1 v! REM|inst9|inst3~0_combout $end
$var wire 1 w! REM|inst8~q $end
$var wire 1 x! inst2|Mux0_rtl_0|auto_generated|ram_block1a4 $end
$var wire 1 y! RDM|inst6~1_q $end
$var wire 1 z! RDM|inst6~4_combout $end
$var wire 1 {! inst3|inst37~0_combout $end
$var wire 1 |! inst3|inst31|inst20~combout $end
$var wire 1 }! inst3|inst37~q $end
$var wire 1 ~! REM|inst7|inst3~0_combout $end
$var wire 1 !" REM|inst6~q $end
$var wire 1 "" inst2|Mux0_rtl_0|auto_generated|ram_block1a7 $end
$var wire 1 #" RDM|inst4~4_combout $end
$var wire 1 $" inst3|inst36~0_combout $end
$var wire 1 %" inst3|inst31|inst19~combout $end
$var wire 1 &" inst3|inst36~q $end
$var wire 1 '" REM|inst5|inst3~0_combout $end
$var wire 1 (" REM|inst4~q $end
$var wire 1 )" inst2|Mux0_rtl_0|auto_generated|ram_block1a3 $end
$var wire 1 *" RDM|inst8~4_combout $end
$var wire 1 +" RI|inst8~q $end
$var wire 1 ," DECOD|inst5~9_combout $end
$var wire 1 -" inst1|inst|inst2~q $end
$var wire 1 ." inst|inst41~1_combout $end
$var wire 1 /" RDM|inst12~3feeder_combout $end
$var wire 1 0" RDM|inst12~3_q $end
$var wire 1 1" RDM|inst2~1_q $end
$var wire 1 2" inst2|Mux0_rtl_0|auto_generated|ram_block1a6 $end
$var wire 1 3" RDM|inst2~4_combout $end
$var wire 1 4" REM|inst3|inst3~0_combout $end
$var wire 1 5" REM|inst2~q $end
$var wire 1 6" inst2|Mux0_rtl_0|auto_generated|ram_block1a2 $end
$var wire 1 7" RDM|inst10~1_q $end
$var wire 1 8" RDM|inst10~4_combout $end
$var wire 1 9" RI|inst10~feeder_combout $end
$var wire 1 :" RI|inst10~q $end
$var wire 1 ;" DECOD|inst5~5_combout $end
$var wire 1 <" inst|inst3~combout $end
$var wire 1 =" DECOD|inst5~8_combout $end
$var wire 1 >" DECOD|inst5~1_combout $end
$var wire 1 ?" inst|inst7~combout $end
$var wire 1 @" inst1|inst1|inst4~1_combout $end
$var wire 1 A" Codificador_ULA|inst~combout $end
$var wire 1 B" DECOD|inst5~7_combout $end
$var wire 1 C" Codificador_ULA|inst1~combout $end
$var wire 1 D" inst4|inst5|inst8|inst3~0_combout $end
$var wire 1 E" AC|inst11|inst3~1_combout $end
$var wire 1 F" inst4|inst5|inst5|inst3~1_combout $end
$var wire 1 G" inst4|inst5|inst5|inst3~2_combout $end
$var wire 1 H" inst|inst15~0_combout $end
$var wire 1 I" inst|inst16~combout $end
$var wire 1 J" AC|inst4~q $end
$var wire 1 K" inst4|inst5|inst1|inst3~0_combout $end
$var wire 1 L" inst4|inst5|inst1|inst3~1_combout $end
$var wire 1 M" AC|inst~q $end
$var wire 1 N" inst4|inst|inst1|OR1~0_combout $end
$var wire 1 O" inst4|inst|inst3|XOR2~0_combout $end
$var wire 1 P" inst4|inst|inst3|XOR2~combout $end
$var wire 1 Q" inst4|inst|inst3|OR1~0_combout $end
$var wire 1 R" inst4|inst5|inst7|inst3~0_combout $end
$var wire 1 S" inst4|inst5|inst7|inst3~1_combout $end
$var wire 1 T" inst4|inst5|inst7|inst3~2_combout $end
$var wire 1 U" AC|inst6~q $end
$var wire 1 V" inst4|inst|inst3|OR1~1_combout $end
$var wire 1 W" inst4|inst|inst3|OR1~2_combout $end
$var wire 1 X" AC|inst9|inst3~5_combout $end
$var wire 1 Y" AC|inst9|inst3~2_combout $end
$var wire 1 Z" AC|inst9|inst3~4_combout $end
$var wire 1 [" AC|inst8~q $end
$var wire 1 \" inst4|inst|inst4|OR1~0_combout $end
$var wire 1 ]" AC|inst11|inst3~0_combout $end
$var wire 1 ^" AC|inst11|inst3~2_combout $end
$var wire 1 _" AC|inst10~q $end
$var wire 1 `" inst4|inst|inst5|OR1~0_combout $end
$var wire 1 a" inst4|inst5|inst8|inst3~1_combout $end
$var wire 1 b" inst4|inst5|inst8|inst3~2_combout $end
$var wire 1 c" inst4|inst5|inst8|inst3~3_combout $end
$var wire 1 d" NZ|inst16~q $end
$var wire 1 e" inst|inst38~0_combout $end
$var wire 1 f" inst|inst13~0_combout $end
$var wire 1 g" inst3|inst16|inst3~0_combout $end
$var wire 1 h" inst3|inst~q $end
$var wire 1 i" REM|inst1|inst3~0_combout $end
$var wire 1 j" REM|inst~q $end
$var wire 1 k" inst2|Mux0_rtl_0|auto_generated|ram_block1a0~portadataout $end
$var wire 1 l" RDM|inst14~4_combout $end
$var wire 1 m" RI|inst14~feeder_combout $end
$var wire 1 n" RI|inst14~q $end
$var wire 1 o" inst|inst21~0_combout $end
$var wire 1 p" DECOD|inst5~0_combout $end
$var wire 1 q" inst|inst28~1_combout $end
$var wire 1 r" inst|inst28~2_combout $end
$var wire 1 s" DECOD|inst5~6_combout $end
$var wire 1 t" inst|inst4~combout $end
$var wire 1 u" inst|inst6~combout $end
$var wire 1 v" inst|inst5~combout $end
$var wire 1 w" AC|inst14~q $end
$var wire 1 x" AC|inst13|inst3~0_combout $end
$var wire 1 y" AC|inst13|inst3~2_combout $end
$var wire 1 z" AC|inst12~q $end
$var wire 1 {" inst4|inst5|inst3|inst3~2_combout $end
$var wire 1 |" inst4|inst5|inst3|inst3~0_combout $end
$var wire 1 }" inst4|inst5|inst3|inst3~1_combout $end
$var wire 1 ~" inst4|inst5|inst3|inst3~3_combout $end
$var wire 1 !# AC|inst2~q $end
$var wire 1 "# DECOD|inst5~10_combout $end
$var wire 1 ## DECOD|inst5~11_combout $end
$var wire 1 $# DECOD|inst5~12_combout $end
$var wire 1 %# DECOD|inst5~13_combout $end
$var wire 1 &# DECOD|inst5~14_combout $end
$var wire 1 '# DECOD|inst5~15_combout $end
$var wire 1 (# RI|inst6~feeder_combout $end
$var wire 1 )# RI|inst6~q $end
$var wire 1 *# RI|inst4~feeder_combout $end
$var wire 1 +# RI|inst4~q $end
$var wire 1 ,# RI|inst2~feeder_combout $end
$var wire 1 -# RI|inst2~q $end
$var wire 1 .# RI|inst~feeder_combout $end
$var wire 1 /# RI|inst~q $end
$var wire 1 0# inst|inst~0_combout $end
$var wire 1 1# inst|inst2~combout $end
$var wire 1 2# inst2|Mux0_rtl_0|auto_generated|ram_block1a0_PORTADATAOUT_bus [17] $end
$var wire 1 3# inst2|Mux0_rtl_0|auto_generated|ram_block1a0_PORTADATAOUT_bus [16] $end
$var wire 1 4# inst2|Mux0_rtl_0|auto_generated|ram_block1a0_PORTADATAOUT_bus [15] $end
$var wire 1 5# inst2|Mux0_rtl_0|auto_generated|ram_block1a0_PORTADATAOUT_bus [14] $end
$var wire 1 6# inst2|Mux0_rtl_0|auto_generated|ram_block1a0_PORTADATAOUT_bus [13] $end
$var wire 1 7# inst2|Mux0_rtl_0|auto_generated|ram_block1a0_PORTADATAOUT_bus [12] $end
$var wire 1 8# inst2|Mux0_rtl_0|auto_generated|ram_block1a0_PORTADATAOUT_bus [11] $end
$var wire 1 9# inst2|Mux0_rtl_0|auto_generated|ram_block1a0_PORTADATAOUT_bus [10] $end
$var wire 1 :# inst2|Mux0_rtl_0|auto_generated|ram_block1a0_PORTADATAOUT_bus [9] $end
$var wire 1 ;# inst2|Mux0_rtl_0|auto_generated|ram_block1a0_PORTADATAOUT_bus [8] $end
$var wire 1 <# inst2|Mux0_rtl_0|auto_generated|ram_block1a0_PORTADATAOUT_bus [7] $end
$var wire 1 =# inst2|Mux0_rtl_0|auto_generated|ram_block1a0_PORTADATAOUT_bus [6] $end
$var wire 1 ># inst2|Mux0_rtl_0|auto_generated|ram_block1a0_PORTADATAOUT_bus [5] $end
$var wire 1 ?# inst2|Mux0_rtl_0|auto_generated|ram_block1a0_PORTADATAOUT_bus [4] $end
$var wire 1 @# inst2|Mux0_rtl_0|auto_generated|ram_block1a0_PORTADATAOUT_bus [3] $end
$var wire 1 A# inst2|Mux0_rtl_0|auto_generated|ram_block1a0_PORTADATAOUT_bus [2] $end
$var wire 1 B# inst2|Mux0_rtl_0|auto_generated|ram_block1a0_PORTADATAOUT_bus [1] $end
$var wire 1 C# inst2|Mux0_rtl_0|auto_generated|ram_block1a0_PORTADATAOUT_bus [0] $end
$upscope $end
$upscope $end
$enddefinitions $end
#0
$dumpvars
0!
1"
0#
0$
0,
0+
0*
0)
0(
0'
0&
0%
0-
0.
0/
00
01
02
13
04
05
06
1F
0E
0D
0C
0B
0A
0@
0?
0>
0=
0<
0;
0:
09
08
07
0G
0O
0N
0M
0L
0K
0J
0I
0H
0P
0Q
0R
0U
0T
0S
0V
0W
xX
0Y
1Z
x[
1\
1]
1^
0_
0`
0a
0b
0c
1d
0e
0f
0g
0h
0i
0j
0k
0l
0m
0n
0o
0p
0q
0r
0s
0t
0u
0v
0w
0x
0y
0z
1{
0|
0}
0~
0!!
0"!
0#!
0$!
0%!
0&!
0'!
0(!
0)!
0*!
0+!
0,!
0-!
0.!
0/!
00!
11!
02!
03!
04!
05!
06!
07!
08!
09!
0:!
0;!
0<!
0=!
0>!
0?!
1@!
1A!
1B!
0C!
0D!
0E!
0F!
1G!
0H!
0I!
0J!
0K!
0L!
0M!
0N!
0O!
0P!
0Q!
0R!
0S!
0T!
0U!
0V!
0W!
0X!
1Y!
0Z!
1[!
0\!
1]!
0^!
0_!
0`!
0a!
0b!
0c!
0d!
0e!
0f!
1g!
0h!
0i!
0j!
0k!
0l!
0m!
0n!
0o!
0p!
0q!
0r!
0s!
0t!
0u!
0v!
0w!
0x!
0y!
0z!
0{!
0|!
0}!
0~!
0!"
0""
0#"
0$"
0%"
0&"
0'"
0("
0)"
0*"
0+"
1,"
0-"
0."
0/"
00"
01"
02"
03"
04"
05"
06"
07"
08"
09"
0:"
0;"
0<"
0="
0>"
0?"
0@"
0A"
0B"
0C"
1D"
0E"
0F"
0G"
0H"
0I"
0J"
0K"
0L"
0M"
0N"
0O"
0P"
0Q"
0R"
0S"
0T"
0U"
0V"
0W"
0X"
0Y"
0Z"
0["
0\"
0]"
0^"
0_"
0`"
0a"
0b"
0c"
0d"
1e"
0f"
0g"
0h"
0i"
0j"
0k"
0l"
0m"
0n"
0o"
1p"
0q"
0r"
0s"
0t"
0u"
0v"
0w"
0x"
0y"
0z"
0{"
0|"
0}"
0~"
0!#
0"#
0##
0$#
0%#
0&#
0'#
0(#
0)#
0*#
0+#
0,#
0-#
0.#
0/#
00#
01#
0C#
0B#
0A#
0@#
0?#
0>#
0=#
0<#
0;#
0:#
09#
08#
07#
06#
05#
04#
03#
02#
$end
#5000
1!
1E!
1F!
0X
1C!
1a
1-"
1h!
0Y!
1N!
0G!
1?!
1U
1."
1/"
1z
1Q
1i!
0]!
1g"
1}
0{
16
03
#5001
1A#
16"
#10000
0!
0E!
0F!
1X
#15000
1!
1E!
1F!
0X
1h"
10"
0-"
1O!
1i"
0g"
1r!
1o!
18"
0h!
1G!
0?!
1>!
0U
1T
0."
1c!
1^"
19"
0/"
0z
1:!
0Q
14
0i!
1g"
0}
06
#20000
0!
0E!
0F!
1X
#25000
1!
1E!
1F!
0X
17"
00"
1:"
1-"
1o"
1H"
1\!
1P!
0N!
0G!
14!
1?!
1J
1U
0p"
1;"
0c!
1b
01!
1/!
0:!
0F
1D
04
1]!
1{
13
#30000
0!
0E!
0F!
1X
#35000
1!
1E!
1F!
0X
1j"
0-"
1Q!
0O!
0\!
1G!
1R!
0?!
1=!
0>!
0U
1S
0T
1."
1/"
1z
1Q
0]!
1i!
0g"
0{
1}
03
16
#40000
0!
0E!
0F!
1X
#45000
1!
1E!
1F!
0X
0h"
10"
1p!
1-"
0i"
1g"
0r!
0o!
14"
1q!
1Y!
1N!
0G!
1?!
1U
0."
0i!
1W!
1o!
0/"
0g"
04"
1k!
0z
0}
1|
0Q
06
1R
1]!
1{
13
#45001
1C#
0A#
1k"
06"
1l"
08"
1m"
0D"
1_!
0^"
09"
0k!
1b"
1c"
#50000
0!
0E!
0F!
1X
#55000
1!
1E!
1F!
0X
0j"
1d"
07"
00"
1`!
1D!
0-"
1O!
0Y!
1G!
0R!
0?!
1>!
0U
1T
1."
1i!
0W!
1/"
1g"
14"
0_!
1z
1}
0|
1Q
16
0R
0]!
0i!
0g"
0{
0}
03
06
#60000
0!
0E!
0F!
1X
#65000
1!
1E!
1F!
0X
10"
1-"
1@"
0P!
0N!
0G!
1?!
1U
1<"
0."
0/"
1l
0z
1W
0Q
1r"
1I"
1k
1!!
1y
15
10
1/
#65001
0C#
1?#
1=#
0k"
1x!
12"
0l"
1z!
13"
0m"
0c"
1D"
1(#
1V"
1T"
1O"
1,#
1~"
0b"
0d
1P"
1R"
1S"
#70000
0!
0E!
0F!
1X
#75000
1!
1E!
1F!
0X
11"
00"
1y!
0D!
1!#
1U"
0-"
0Q!
0O!
1}"
1N"
1X"
1Q"
0P"
0@"
1Y!
1G!
1w
1u
0?!
0=!
0>!
1+
1)
0U
0S
0T
0<"
0~"
1c
1Y"
0R"
0l
0W
0r"
0I"
1]!
1G"
1Z"
0S"
0k
0!!
0y
1{
05
00
0/
13
0T"
#80000
0!
0E!
0F!
1X
#85000
1!
1E!
1F!
0X
0d"
15"
0`!
0a
1-"
1h!
0Y!
1N!
0G!
1?!
1U
1."
1/"
1z
1Q
1i!
0]!
1g"
1}
0{
16
03
#90000
0!
0E!
0F!
1X
#95000
1!
1E!
1F!
0X
1h"
10"
0-"
1O!
1i"
0g"
1r!
0o!
0h!
1G!
0?!
1>!
0U
1T
0."
1c!
1%"
0/"
0z
1:!
0Q
14
0i!
1g"
0}
06
#95001
1B#
1A#
0?#
0=#
1a!
16"
0x!
02"
1b!
18"
0z!
03"
1y"
1^"
19"
0(#
0X"
0Q"
0O"
0,#
1~"
0N"
0Y"
1P"
0c
0Z"
1R"
0G"
1S"
1T"
#100000
0!
0E!
0F!
1X
#105000
1!
1E!
1F!
0X
17"
01"
00"
0y!
1S!
1-"
1d!
1\!
1P!
0N!
0G!
0o"
0H"
1?!
13!
1U
1I
0c!
1>"
0;"
1q"
0b
0:!
1+!
0/!
04
1@
0D
1I"
1?"
1C"
1A"
1!!
1y
1p
10
1/
1G
1r"
1{"
1x"
1b"
1K"
1F"
1E"
1f
1e
1c
0S"
0P!
1k
15
0~"
1c"
1L"
1G"
1Z"
0T"
#110000
0!
0E!
0F!
1X
#115000
1!
1E!
1F!
0X
0!#
1z"
1w"
1_"
1["
0U"
1M"
1J"
0-"
0O!
0}"
0x"
1a"
0D"
1`"
1]"
1Y"
0V"
1S"
0P"
0K"
0c
0\!
1Y!
1G!
0w
1r
1q
1s
1t
0u
1x
1v
0?!
0>!
0+
1&
1%
1'
1(
0)
1,
1*
0U
0T
0?"
1~"
0y"
0b"
0^"
0Z"
1T"
0L"
0G"
0q"
0C"
0A"
0p
0G
0I"
1]!
0c"
0{"
0R"
1K"
0F"
0E"
0f
0e
1c
0!!
0y
1{
00
0/
13
0r"
0~"
0S"
1L"
1G"
1Z"
1y"
0k
05
0T"
#120000
0!
0E!
0F!
1X
#125000
1!
1E!
1F!
0X
1j"
1-"
1h!
0Y!
1N!
0G!
1?!
1U
1."
1/"
1z
1Q
1i!
0]!
0g"
1}
0{
16
03
#130000
0!
0E!
0F!
1X
#135000
1!
1E!
1F!
0X
0h"
10"
1&"
0p!
0-"
1O!
0i"
1g"
0r!
1o!
1'"
1$"
04"
0q!
0h!
1G!
0?!
1>!
0U
1T
0."
1c!
0o!
0/"
0z
1:!
0Q
14
0i!
0g"
0}
06
#135001
0B#
1@#
0a!
1)"
0b!
1*"
0y"
1\"
0Z"
0]"
1^"
#140000
0!
0E!
0F!
1X
#145000
1!
1E!
1F!
0X
00"
0S!
1H!
1-"
1+"
0d!
1\!
1P!
0N!
0G!
1o"
1H"
1?!
15!
03!
1U
1K
0I
1?"
0c!
1s"
0>"
1b
1C"
1A"
1p
0:!
1.!
0+!
1G
04
1C
0@
1]!
0?"
1{"
1]"
1R"
0K"
1F"
1E"
1f
1e
0c
0C"
0A"
1{
0p
13
0G
1~"
0^"
1S"
0L"
0G"
0{"
0]"
0R"
1K"
0F"
0E"
0f
0e
1c
1T"
0~"
1^"
0S"
1L"
1G"
0T"
#150000
0!
0E!
0F!
1X
#155000
1!
1E!
1F!
0X
0j"
05"
1("
0-"
1Q!
0O!
0\!
1G!
1R!
0?!
1=!
0>!
0U
1S
0T
1."
1/"
1z
1Q
0]!
1i!
1g"
0{
1}
03
16
#160000
0!
0E!
0F!
1X
#165000
1!
1E!
1F!
0X
1h"
10"
1-"
1i"
0g"
1r!
1o!
1Y!
1N!
0G!
1?!
1U
0."
0i!
1W!
0/"
1g"
0i"
0'"
1v!
1k!
0z
0}
1|
0Q
06
1R
1]!
1{
13
#165001
1C#
0A#
0@#
1>#
1k"
06"
0)"
1m!
1l"
08"
0*"
1n!
1m"
1D"
1_!
0^"
09"
0k!
0\"
1Z"
0v!
1.#
1|"
1i"
0K"
1b"
0`"
1]"
1}"
0L"
1c"
1x"
0a"
1^"
1~"
1y"
0b"
0c"
#170000
0!
0E!
0F!
1X
#175000
1!
1E!
1F!
0X
1j"
07"
00"
0("
1`!
1K!
0H!
1D!
0-"
1O!
0Y!
1G!
0R!
0?!
1>!
0U
1T
1."
1i!
0W!
1/"
0g"
1'"
0_!
1z
1}
0|
1Q
16
0R
0]!
0i!
1g"
0{
0}
03
06
#180000
0!
0E!
0F!
1X
#185000
1!
1E!
1F!
0X
10"
1-"
1@"
0P!
0N!
0G!
1?!
1U
1t"
0."
0/"
1m
0z
1-
0Q
1r"
1I"
1k
1!!
1y
15
10
1/
#185001
0C#
0k"
0l"
0m"
0D"
1b"
1c"
#190000
0!
0E!
0F!
1X
#195000
1!
1E!
1F!
0X
00"
0D!
1!#
0M"
0-"
0Q!
0O!
0}"
0|"
1K"
0@"
1Y!
1G!
1w
0x
0?!
0=!
0>!
1+
0,
0U
0S
0T
0t"
0~"
1}"
1L"
0m
0-
0r"
0I"
1]!
1~"
0k
0!!
0y
1{
05
00
0/
13
#200000
0!
0E!
0F!
1X
#205000
1!
1E!
1F!
0X
1d"
1("
0`!
1-"
1h!
0Y!
1N!
0G!
1?!
1U
1."
1/"
1z
1Q
1i!
0]!
0g"
1}
0{
16
03
#210000
0!
0E!
0F!
1X
#215000
1!
1E!
1F!
0X
0h"
10"
1p!
0-"
1O!
0i"
1g"
0r!
0o!
14"
1q!
0h!
1G!
0?!
1>!
0U
1T
0."
1c!
1o!
0/"
0z
1:!
0Q
14
0i!
0g"
0}
06
#215001
1A#
1@#
0>#
16"
1)"
0m!
18"
1*"
0n!
1`"
0^"
19"
1\"
0Z"
0.#
0K"
0x"
1a"
0]"
0L"
0y"
0b"
1^"
0c"
#220000
0!
0E!
0F!
1X
#225000
1!
1E!
1F!
0X
0d"
17"
00"
0K!
1H!
1-"
1\!
1P!
0N!
0G!
1?!
1U
0c!
0:!
04
1]!
1{
13
#230000
0!
0E!
0F!
1X
#235000
1!
1E!
1F!
0X
0j"
15"
0-"
1Q!
0O!
0\!
1G!
1R!
0?!
1=!
0>!
0U
1S
0T
1."
1/"
1z
1Q
0]!
1i!
1g"
0{
1}
03
16
#240000
0!
0E!
0F!
1X
#245000
1!
1E!
1F!
0X
1h"
10"
1-"
1i"
0g"
1r!
0o!
1Y!
1N!
0G!
1?!
1U
0."
0i!
1W!
0%"
1|!
0/"
1g"
0i"
04"
0'"
1v!
1k!
0z
0}
1|
0Q
06
1R
1]!
1{
13
#245001
1C#
0A#
0@#
1=#
1k"
06"
0)"
12"
1l"
08"
0*"
13"
1m"
1D"
1_!
0^"
09"
0k!
0\"
1Z"
0v!
1,#
0~"
1N"
14"
1b"
0`"
1]"
1O"
0c
1c"
1x"
0a"
1^"
1P"
0G"
1y"
0b"
1R"
1d
0c"
1S"
1T"
0d
#250000
0!
0E!
0F!
1X
#255000
1!
1E!
1F!
0X
07"
11"
00"
0("
1`!
0H!
1D!
0-"
1O!
0Y!
1G!
0R!
0?!
1>!
0U
1T
1."
1i!
0W!
1/"
0g"
1i"
1'"
0_!
1z
1}
0|
1Q
16
0R
0]!
0i!
1g"
0{
0}
03
06
#260000
0!
0E!
0F!
1X
#265000
1!
1E!
1F!
0X
10"
1-"
1@"
0P!
0N!
0G!
1?!
1U
1t"
0."
0/"
1m
0z
1-
0Q
1r"
1I"
1k
1!!
1y
15
10
1/
#265001
0C#
1@#
1>#
0=#
0k"
1)"
1m!
02"
0l"
1*"
1n!
03"
0m"
0D"
1\"
0Z"
1.#
0N"
1K"
0,#
1~"
1b"
1`"
0]"
0O"
1c
1L"
1c"
0x"
1a"
0^"
0P"
1G"
0y"
0b"
0R"
0c"
0S"
0T"
#270000
0!
0E!
0F!
1X
#275000
1!
1E!
1F!
0X
01"
00"
1K!
1H!
0D!
0z"
0w"
0_"
0["
1M"
0-"
0Q!
0O!
1x"
0a"
1D"
0`"
1]"
0\"
0Y"
1|"
1N"
0K"
0@"
1Y!
1G!
0r
0q
0s
0t
1x
0?!
0=!
0>!
0&
0%
0'
0(
1,
0U
0S
0T
0t"
1y"
0x"
1^"
0]"
1Z"
0}"
1O"
0c
0L"
0m
0-
0r"
0I"
1]!
0y"
0^"
0~"
1P"
0G"
0k
0!!
0y
1{
05
00
0/
13
1d
1R"
1S"
1T"
0d
#280000
0!
0E!
0F!
1X
#285000
1!
1E!
1F!
0X
1j"
1("
0`!
1-"
1h!
0Y!
1N!
0G!
1?!
1U
1."
1/"
1z
1Q
1i!
0]!
0g"
1}
0{
16
03
#290000
0!
0E!
0F!
1X
#295000
1!
1E!
1F!
0X
0h"
10"
0&"
1}!
0p!
0-"
1O!
0i"
1g"
0r!
1o!
0'"
0$"
1~!
1{!
04"
0q!
0h!
1G!
0?!
1>!
0U
1T
0."
1c!
0o!
0/"
0z
1:!
0Q
14
0i!
0g"
0}
06
